*** Life<FredkinCell> 4x4 ***

Generation = 0, Population = 4.
--0-
----
0-0-
-0--

Generation = 1, Population = 5.
-0-0
0---
-0-0
----

Generation = 2, Population = 3.
----
-0--
----
-0-0

Generation = 3, Population = 5.
-0--
0-0-
---0
0---

Generation = 4, Population = 3.
----
-0--
----
-0-0

Generation = 5, Population = 5.
-0--
0-0-
---0
0---

*** Life<FredkinCell> 4x4 ***

Generation = 0, Population = 10.
-00-
0-0-
--00
0000

Generation = 1, Population = 6.
-1-0
-0--
--1-
1-1-

Generation = 2, Population = 10.
02--
01-0
0-20
--20

Generation = 3, Population = 10.
--00
1-01
10-1
10--

Generation = 4, Population = 10.
02--
21-2
2-22
--20

Generation = 5, Population = 10.
--00
3-03
30-3
10--

*** Life<FredkinCell> 5x5 ***

Generation = 0, Population = 5.
-----
---0-
--000
---0-
-----

Generation = 1, Population = 7.
---0-
---1-
-01-1
---1-
---0-

Generation = 2, Population = 13.
--010
-0-2-
012--
-0-2-
--010

Generation = 3, Population = 13.
--121
-1-3-
1-30-
-1-3-
--121

Generation = 4, Population = 9.
--232
-----
--411
-----
--232

Generation = 5, Population = 9.
-03-3
-----
-15-2
-----
-03-3

*** Life<FredkinCell> 5x5 ***

Generation = 0, Population = 10.
---00
0----
-0000
000--
-----

Generation = 1, Population = 14.
0-011
--0--
0-1-1
11--0
000--

Generation = 2, Population = 14.
----2
-0---
102-2
2-001
-1100

Generation = 3, Population = 13.
-0-1-
-1---
-1-03
3-112
-221-

Generation = 4, Population = 10.
01--2
0-0-0
-22--
-----
-33--

Generation = 5, Population = 13.
-2-13
1-1-1
-3-03
-----
0441-

*** Life<FredkinCell> 1x1 ***

Generation = 0, Population = 1.
0

Generation = 1, Population = 0.
-

Generation = 2, Population = 0.
-

Generation = 3, Population = 0.
-

Generation = 4, Population = 0.
-

Generation = 5, Population = 0.
-

*** Life<FredkinCell> 3x3 ***

Generation = 0, Population = 2.
0--
-0-
---

Generation = 1, Population = 2.
---
--0
-0-

Generation = 2, Population = 2.
--0
---
0--

Generation = 3, Population = 4.
-0-
0-0
-0-

*** Life<FredkinCell> 4x3 ***

Generation = 0, Population = 4.
00-
---
00-
---

Generation = 1, Population = 8.
110
---
110
00-

Generation = 2, Population = 4.
2-1
---
-21
---

Generation = 3, Population = 7.
---
00-
132
-00

Generation = 4, Population = 2.
21-
---
---
---

Generation = 5, Population = 5.
321
00-
---
---

*** Life<FredkinCell> 3x3 ***

Generation = 0, Population = 8.
000
000
00-

Generation = 1, Population = 2.
-1-
1--
---

Generation = 2, Population = 2.
--0
---
0--

Generation = 3, Population = 4.
-1-
1-0
-0-

Generation = 4, Population = 0.
---
---
---

Generation = 5, Population = 0.
---
---
---

*** Life<FredkinCell> 4x4 ***

Generation = 0, Population = 4.
--0-
0---
0---
0---

Generation = 1, Population = 9.
00-0
100-
-0--
10--

Generation = 2, Population = 5.
--0-
--1-
0---
2-0-

Generation = 3, Population = 11.
-010
1020
10--
3--0

Generation = 4, Population = 5.
--2-
--3-
2---
4-0-

Generation = 5, Population = 11.
-030
1040
30--
5--0

*** Life<FredkinCell> 2x2 ***

Generation = 0, Population = 1.
-0
--

Generation = 1, Population = 2.
0-
-0

Generation = 2, Population = 0.
--
--

Generation = 3, Population = 0.
--
--

Generation = 4, Population = 0.
--
--

Generation = 5, Population = 0.
--
--

*** Life<FredkinCell> 3x3 ***

Generation = 0, Population = 9.
000
000
000

Generation = 1, Population = 4.
-1-
1-1
-1-

Generation = 2, Population = 0.
---
---
---

Generation = 3, Population = 0.
---
---
---

Generation = 4, Population = 0.
---
---
---

Generation = 5, Population = 0.
---
---
---

*** Life<FredkinCell> 3x3 ***

Generation = 0, Population = 1.
-0-
---
---

Generation = 1, Population = 3.
0-0
-0-
---

Generation = 2, Population = 2.
-0-
---
-0-

Generation = 3, Population = 4.
0-0
---
0-0
