*** Life<Cell> 3x3 ***

Generation = 0, Population = 5.
0-0
-0-
0-0

Generation = 1, Population = 4.
-0-
0-0
-0-

Generation = 2, Population = 0.
---
---
---

Generation = 3, Population = 0.
---
---
---

Generation = 4, Population = 0.
---
---
---

Generation = 5, Population = 0.
---
---
---

*** Life<Cell> 3x3 ***

Generation = 0, Population = 9.
000
000
000

Generation = 1, Population = 4.
-1-
1-1
-1-

Generation = 2, Population = 0.
---
---
---

Generation = 3, Population = 0.
---
---
---

*** Life<Cell> 3x3 ***

Generation = 0, Population = 4.
0--
0-0
0--

Generation = 1, Population = 6.
100
---
100

Generation = 2, Population = 4.
*-1
---
*-1

Generation = 3, Population = 0.
.--
---
.--

Generation = 4, Population = 0.
.--
---
.--

Generation = 5, Population = 0.
.--
---
.--

*** Life<Cell> 4x4 ***

Generation = 0, Population = 4.
0---
-0--
--0-
---0

Generation = 1, Population = 0.
----
----
----
----

Generation = 2, Population = 0.
----
----
----
----

Generation = 3, Population = 0.
----
----
----
----

Generation = 4, Population = 0.
----
----
----
----

Generation = 5, Population = 0.
----
----
----
----

*** Life<Cell> 4x4 ***

Generation = 0, Population = 5.
0--0
0---
---0
---0

Generation = 1, Population = 10.
100-
10--
0-01
--01

Generation = 2, Population = 10.
-110
*-00
10--
00--

Generation = 3, Population = 6.
-**-
*---
*--1
--0-

Generation = 4, Population = 8.
-*.0
*-00
.0--
00--

Generation = 5, Population = 8.
-*.1
*-1-
.1-1
1-0-

*** Life<Cell> 4x4 ***

Generation = 0, Population = 5.
0--0
---0
---0
---0

Generation = 1, Population = 8.
-001
0-0-
--0-
--01

Generation = 2, Population = 8.
-11*
-0--
00--
-0-*

Generation = 3, Population = 7.
0--.
---0
1100
-1-.

Generation = 4, Population = 6.
-1-.
-0-1
**--
-*-.

Generation = 5, Population = 9.
0*1.
----
**00
-*0.

*** Life<Cell> 5x3 ***

Generation = 0, Population = 5.
0--
-0-
--0
-0-
0--

Generation = 1, Population = 1.
---
---
-0-
---
---

Generation = 2, Population = 4.
---
-0-
0-0
-0-
---

Generation = 3, Population = 2.
-0-
---
---
---
-0-

Generation = 4, Population = 6.
0-0
-0-
---
-0-
0-0

Generation = 5, Population = 2.
-0-
---
---
---
-0-

*** Life<Cell> 5x3 ***

Generation = 0, Population = 6.
0--
-0-
0-0
-0-
0--

Generation = 1, Population = 2.
---
0--
---
0--
---

Generation = 2, Population = 4.
0--
-0-
---
-0-
0--

Generation = 3, Population = 2.
---
--0
---
--0
---

Generation = 4, Population = 4.
--0
-0-
---
-0-
--0

Generation = 5, Population = 2.
---
0--
---
0--
---

*** Life<Cell> 2x8 ***

Generation = 0, Population = 5.
0--0-0--
-0--0---

Generation = 1, Population = 4.
--0-0-0-
--0-----

Generation = 2, Population = 8.
-01----0
-0100-0-

Generation = 3, Population = 5.
0---0---
0-*-1---

Generation = 4, Population = 9.
101010--
1-.-*0--

Generation = 5, Population = 5.
----*-0-
*-*-.-0-

*** Life<Cell> 2x8 ***

Generation = 0, Population = 5.
-0---0--
--000---

Generation = 1, Population = 5.
0--0--0-
--1-1---

Generation = 2, Population = 8.
-0---0-0
00-0-00-

Generation = 3, Population = 8.
-100010-
1-----1-

Generation = 4, Population = 7.
-*-----0
--101-*0

Generation = 5, Population = 7.
0.-00--1
--*-*-*-
